^C:\USERS\USER\DOCUMENTS\VISUAL STUDIO 2013\PROJECTS\WINDOWS_SHELL\WINDOWS_SHELL\HELPER.CPP
/c /ZI /nologo /W3 /WX- /sdl /Od /Oy- /D _MBCS /Gm /EHsc /RTC1 /MDd /GS /fp:precise /Zc:wchar_t /Zc:forScope /Fo"DEBUG\\" /Fd"DEBUG\VC120.PDB" /Gd /TP /analyze- C:\USERS\USER\DOCUMENTS\VISUAL STUDIO 2013\PROJECTS\WINDOWS_SHELL\WINDOWS_SHELL\HELPER.CPP
^C:\USERS\USER\DOCUMENTS\VISUAL STUDIO 2013\PROJECTS\WINDOWS_SHELL\WINDOWS_SHELL\SOURCE.CPP
/c /ZI /nologo /W3 /WX- /sdl /Od /Oy- /D _MBCS /Gm /EHsc /RTC1 /MDd /GS /fp:precise /Zc:wchar_t /Zc:forScope /Fo"DEBUG\\" /Fd"DEBUG\VC120.PDB" /Gd /TP /analyze- C:\USERS\USER\DOCUMENTS\VISUAL STUDIO 2013\PROJECTS\WINDOWS_SHELL\WINDOWS_SHELL\SOURCE.CPP
